BREEZE-M R/B            
1 38746U 12044C   19169.07913515  .00003904  00000-0  24624-3 0  9993
2 38746  49.6804 303.9041 2410638 139.7249 240.9674 10.49429064259096
BREEZE-M DEB            
1 38884U 12044R   19168.10340594  .00000804  20264-5  40876-4 0  9993
2 38884  50.0249  73.1084 2305716 239.7615  95.5230 10.82212130257720
BREEZE-M DEB            
1 38888U 12044V   19168.28377756  .00011688  50939-5  23596-3 0  9999
2 38888  50.0290 101.9183 1800260  78.8499 300.8495 11.93173606273039
BREEZE-M DEB            
1 38921U 12044BE  19168.47645920  .00026302  49584-5  32542-3 0  9993
2 38921  50.1993 209.0282 1425888 225.6650 121.8355 12.79207741279022
BREEZE-M DEB            
1 38922U 12044BF  19169.11621697  .00005572  37589-5  15735-3 0  9994
2 38922  50.0575 192.4150 2137433  59.8679 319.6796 11.18866408263585
BREEZE-M DEB            
1 38926U 12044BK  19169.12808726  .00033230  50055-5  60595-3 0  9998
2 38926  49.9936 129.3779 1566379 358.7452   0.9673 12.43350687280788
BREEZE-M DEB            
1 38948U 12044CH  19168.55785651  .00021104  44669-5  38853-3 0  9992
2 38948  50.0678 302.1538 1682863 197.4528 156.0924 12.18547560276979
BREEZE-M DEB            
1 38957U 12044CQ  19168.11499592  .00022796  53336-5  38413-3 0  9991
2 38957  50.0173  73.8153 1706892 107.8120 271.5693 12.14704109273340
BREEZE-M DEB            
1 38959U 12044CS  19168.62929981  .00042445  71277-5  44791-3 0  9992
2 38959  49.9747 321.4505 1112024  78.9258 293.4434 13.49878287250065
BREEZE-M DEB            
1 38960U 12044CT  19168.36864647  .00007198  34697-5  17015-3 0  9992
2 38960  50.1361 281.4181 1875465 264.8540  73.6801 11.75294511269293
BREEZE-M DEB            
1 38961U 12044CU  19168.33547524  .00020156  44420-5  36463-3 0  9994
2 38961  50.0817 291.8329 1680181 200.2243 152.3500 12.19397173277276
BREEZE-M DEB            
1 38971U 12044DE  19167.01045366  .00023637  46023-5  40600-3 0  9992
2 38971  50.0851 149.3379 1537869 318.4800  30.8639 12.50514946279675
