IRIDIUM 33              
1 24946U 97051C   19165.90063216  .00000084  00000-0  23258-4 0  9992
2 24946  86.3863 342.1596 0009240  43.9819 316.2111 14.33648256138289
IRIDIUM 33 DEB          
1 33772U 97051K   19165.91057534  .00007424  00000-0  74642-3 0  9993
2 33772  86.3996 313.2039 0025597  63.8277  51.4515 14.90850388547189
IRIDIUM 33 DEB          
1 33773U 97051L   19166.01062554  .00000164  00000-0  47141-4 0  9993
2 33773  86.4010 339.6998 0013109  50.0064 310.2283 14.38377322542123
IRIDIUM 33 DEB          
1 33775U 97051N   19165.96522860  .00000163  00000-0  50230-4 0  9991
2 33775  86.3668 333.8228 0015969  25.7888 101.7501 14.35056291540775
IRIDIUM 33 DEB          
1 33776U 97051P   19165.95200896  .00000170  00000-0  53893-4 0  9999
2 33776  86.4049 351.6957 0016506  39.6862 133.1871 14.34000606540486
IRIDIUM 33 DEB          
1 33777U 97051Q   19165.93454082  .00000321  00000-0  92466-4 0  9993
2 33777  86.3845 328.8062 0009632 203.1062 156.9706 14.41679972542584
IRIDIUM 33 DEB          
1 33849U 97051S   19165.90995104  .00002279  00000-0  57422-3 0  9991
2 33849  86.1029 235.3927 0073771 169.2095 191.0714 14.49081413538759
IRIDIUM 33 DEB          
1 33850U 97051T   19165.95594793  .00000188  00000-0  58031-4 0  9992
2 33850  86.3433 321.9042 0013314  35.3619  87.6616 14.35745437540633
IRIDIUM 33 DEB          
1 33853U 97051W   19165.85826701  .00000490  00000-0  30107-3 0  9990
2 33853  86.0015 298.8928 0241491 242.4381 242.3419 13.90563640523119
IRIDIUM 33 DEB          
1 33854U 97051X   19166.22402591  .00000599  00000-0  10511-3 0  9997
2 33854  86.2298 221.5631 0008121 176.3499 247.4907 14.65970162547731
IRIDIUM 33 DEB          
1 33855U 97051Y   19165.84283492  .00017992  00000-0  32907-2 0  9999
2 33855  86.3182   1.3398 0019438 124.7683 235.5364 14.65666059536015
IRIDIUM 33 DEB          
1 33858U 97051AB  19165.77522762  .00008039  00000-0  60677-3 0  9998
2 33858  86.1318 150.7046 0013972 187.9671 227.2206 15.02206046551806
IRIDIUM 33 DEB          
1 33859U 97051AC  19165.91875579  .00001562  00000-0  47373-3 0  9994
2 33859  86.3410 323.8373 0049421  36.0145 324.4367 14.40952918540382
IRIDIUM 33 DEB          
1 33860U 97051AD  19165.94438128  .00000559  00000-0  15493-3 0  9997
2 33860  86.3921 327.0083 0013469 357.9093 167.5485 14.44850744543282
IRIDIUM 33 DEB          
1 33862U 97051AF  19165.96883757  .00000716  00000-0  18940-3 0  9998
2 33862  86.4127 333.7122 0060111 118.4848 357.9719 14.46331061543907
IRIDIUM 33 DEB          
1 33864U 97051AH  19165.84458757  .00001357  00000-0  34128-3 0  9993
2 33864  86.2763 272.1525 0005568  95.4107  30.7901 14.50560699543953
IRIDIUM 33 DEB          
1 33865U 97051AJ  19165.87477010  .00001252  00000-0  22110-3 0  9992
2 33865  86.3457 289.6483 0041540 164.9354 321.3893 14.66048913546002
IRIDIUM 33 DEB          
1 33866U 97051AK  19166.08332135  .00000553  00000-0  26214-3 0  9997
2 33866  86.3017   2.7328 0123612 120.5862   4.4500 14.13760867532112
IRIDIUM 33 DEB          
1 33867U 97051AL  19165.90690102  .00000573  00000-0  12353-3 0  9990
2 33867  86.4162 316.3229 0031334 271.7735  87.9884 14.56392568546590
IRIDIUM 33 DEB          
1 33869U 97051AN  19165.81824000  .00002139  00000-0  63275-3 0  9997
2 33869  86.3583 350.8779 0064195 138.5118 222.0981 14.41806892538312
IRIDIUM 33 DEB          
1 33870U 97051AP  19166.01206733  .00000296  00000-0  96248-4 0  9998
2 33870  86.3788 341.4328 0025583  55.6178  63.0025 14.35301547540416
IRIDIUM 33 DEB          
1 33873U 97051AS  19165.84002763  .00002292  00000-0  49925-3 0  9995
2 33873  86.3665 301.3837 0023775 255.7990 104.0577 14.57387610545691
IRIDIUM 33 DEB          
1 33874U 97051AT  19165.92367462  .00001640  00000-0  58086-3 0  9999
2 33874  86.2879 326.5841 0075628 230.2753 283.2084 14.32433066536841
IRIDIUM 33 DEB          
1 33875U 97051AU  19165.94247480  .00000941  00000-0  15021-3 0  9994
2 33875  86.4077 290.4199 0033958  85.1262  53.5780 14.70333143549944
IRIDIUM 33 DEB          
1 33876U 97051AV  19165.89519820  .00002336  00000-0  27375-3 0  9994
2 33876  86.2006 203.5519 0009408  77.6672 282.5604 14.84543442548904
IRIDIUM 33 DEB          
1 33878U 97051AX  19165.95289135  .00002650  00000-0  73707-3 0  9995
2 33878  86.3099 333.9977 0111132 158.5857 202.0048 14.42467088537730
IRIDIUM 33 DEB          
1 33879U 97051AY  19166.09749559  .00003349  00000-0  50553-3 0  9993
2 33879  86.3589 279.2982 0031105  61.9734 298.4624 14.73707970548276
IRIDIUM 33 DEB          
1 33881U 97051BA  19165.82222223 -.00000419  00000-0 -17684-3 0  9995
2 33881  86.3905  19.9838 0099788 334.1659 144.2479 14.25268512535152
IRIDIUM 33 DEB          
1 33884U 97051BD  19165.95844487  .00001240  00000-0  33749-3 0  9995
2 33884  86.3803 319.5677 0015828  79.4720  46.9871 14.46664502543631
IRIDIUM 33 DEB          
1 33886U 97051BF  19165.96297961  .00000105  00000-0  31003-4 0  9998
2 33886  86.3828 342.2761 0016373  68.6180  43.8824 14.33376456540447
IRIDIUM 33 DEB          
1 33887U 97051BG  19165.89203390  .00000073  00000-0  18608-4 0  9994
2 33887  86.3039 302.6400 0008662  76.5370  46.6232 14.35027594541200
IRIDIUM 33 DEB          
1 33888U 97051BH  19166.17702357  .00001114  00000-0  33355-3 0  9996
2 33888  86.3275 321.0626 0045416  60.4244 300.1471 14.41403779539815
IRIDIUM 33 DEB          
1 33950U 97051BK  19165.89312744  .00001783  00000-0  34828-3 0  9999
2 33950  86.3800 310.3572 0019573 135.8297 224.4482 14.62259472545145
IRIDIUM 33 DEB          
1 33952U 97051BM  19165.35720489  .00001290  00000-0  28367-3 0  9995
2 33952  86.3504 298.4915 0013558 217.4570 142.5695 14.56741384545050
IRIDIUM 33 DEB          
1 33953U 97051BN  19165.98726926  .00000417  00000-0  12887-3 0  9997
2 33953  86.3921 341.4631 0023400  27.4304 100.1854 14.38846863541308
IRIDIUM 33 DEB          
1 33954U 97051BP  19165.97311308  .00001018  00000-0  20924-3 0  9990
2 33954  86.3782 319.5513 0021320 137.3631 348.6267 14.59503609543942
IRIDIUM 33 DEB          
1 33955U 97051BQ  19165.91688752  .00003022  00000-0  50557-3 0  9997
2 33955  86.3532 311.1459 0036954 189.5000 170.5521 14.69067057544164
IRIDIUM 33 DEB          
1 33956U 97051BR  19165.89388917  .00004578  00000-0  65324-3 0  9990
2 33956  86.4140 321.5315 0033114 315.3473 202.9893 14.76164704296504
IRIDIUM 33 DEB          
1 33959U 97051BU  19165.94665990  .00000306  00000-0  10030-3 0  9997
2 33959  86.3736 354.4339 0056936 205.3914 154.4483 14.34223559536908
IRIDIUM 33 DEB          
1 33960U 97051BV  19165.81313140  .00000201  00000-0  49356-4 0  9990
2 33960  86.2745 272.2646 0008347 174.3548 315.3134 14.47250953543639
IRIDIUM 33 DEB          
1 33961U 97051BW  19165.70511446  .00001842  00000-0  33113-3 0  9993
2 33961  86.2690 257.2025 0022312 168.8711 191.3000 14.65965789545783
IRIDIUM 33 DEB          
1 33962U 97051BX  19165.82138315  .00001667  00000-0  32010-3 0  9997
2 33962  86.3523 293.9177 0021593 191.9581 168.1121 14.62970543545739
IRIDIUM 33 DEB          
1 33965U 97051CA  19165.88970819  .00000411  00000-0  97075-4 0  9998
2 33965  86.3691 313.0854 0007780 226.3433 133.7128 14.51727873543798
IRIDIUM 33 DEB          
1 33966U 97051CB  19165.91558275  .00000241  00000-0  69149-4 0  9993
2 33966  86.3945 332.7579 0009711 132.7568  19.6991 14.40784075542185
IRIDIUM 33 DEB          
1 33967U 97051CC  19165.88472938  .00000108  00000-0  15562-4 0  9993
2 33967  86.3763 307.0706 0047511 153.1641 207.2045 14.64282306545690
IRIDIUM 33 DEB          
1 34071U 97051CE  19165.93453706  .00000271  00000-0  80327-4 0  9990
2 34071  86.3473 316.1415 0008764  39.1025 321.0805 14.39595144541323
IRIDIUM 33 DEB          
1 34076U 97051CK  19166.21560354  .00003470  00000-0  39609-3 0  9995
2 34076  86.3332 243.2162 0028595 347.6285  71.4845 14.85500881551045
IRIDIUM 33 DEB          
1 34077U 97051CL  19165.96969934  .00000521  00000-0  15938-3 0  9997
2 34077  86.3963 343.2023 0016989 355.7367 125.8992 14.39865322540406
IRIDIUM 33 DEB          
1 34079U 97051CN  19165.85086420  .00000555  00000-0  14088-3 0  9999
2 34079  86.3894 320.1142 0011870  72.4906  57.0681 14.48998877544365
IRIDIUM 33 DEB          
1 34081U 97051CQ  19166.12680296  .00010421  00000-0  49659-3 0  9999
2 34081  86.3096 210.3225 0012696 221.6135 189.7814 15.18918541554745
IRIDIUM 33 DEB          
1 34082U 97051CR  19165.90635482  .00002659  00000-0  62678-3 0  9992
2 34082  86.3673  10.3969 0132338 286.8689  71.8037 14.48691338536240
IRIDIUM 33 DEB          
1 34086U 97051CV  19165.69190707  .00001266  00000-0  36811-3 0  9991
2 34086  86.3849 341.7567 0020525  16.1513 111.7389 14.43458651540768
IRIDIUM 33 DEB          
1 34088U 97051CX  19165.95335278  .00000501  00000-0  13716-3 0  9996
2 34088  86.4019 335.6494 0008857 336.2798 137.1006 14.45243156542412
IRIDIUM 33 DEB          
1 34090U 97051CZ  19165.78704502  .00001779  00000-0  18460-3 0  9999
2 34090  86.4153 283.0014 0018012  41.7859 318.4739 14.89227597550918
IRIDIUM 33 DEB          
1 34091U 97051DA  19165.81653748  .00000636  00000-0  23034-3 0  9993
2 34091  86.3717 359.8515 0055916 230.4782 129.1463 14.31091205536780
IRIDIUM 33 DEB          
1 34093U 97051DC  19165.83931177  .00004996  00000-0  33947-3 0  9999
2 34093  86.2894 203.7707 0015569 146.2838 275.9145 15.06041234554511
IRIDIUM 33 DEB          
1 34095U 97051DE  19165.88507145  .00001795  00000-0  37898-3 0  9993
2 34095  86.3845 324.1186 0051558 256.7094 102.8363 14.58018758542853
IRIDIUM 33 DEB          
1 34097U 97051DG  19165.83769137  .00000044  00000-0  10706-4 0  9997
2 34097  86.2039 308.7667 0100098  38.7939 322.0379 14.19869264533510
IRIDIUM 33 DEB          
1 34098U 97051DH  19166.06179782  .00002485  00000-0  33781-3 0  9993
2 34098  86.1356 172.1452 0021464  69.7500 349.5723 14.78227743549210
IRIDIUM 33 DEB          
1 34099U 97051DJ  19165.84800576  .00001655  00000-0  33409-3 0  9996
2 34099  86.3644 305.5274 0016671 147.4838   5.7050 14.60785017544739
IRIDIUM 33 DEB          
1 34101U 97051DL  19166.01434992  .00001811  00000-0  55934-3 0  9996
2 34101  86.3756  15.6801 0108156 300.4510  58.6037 14.37541684535501
IRIDIUM 33 DEB          
1 34102U 97051DM  19165.85789831  .00000978  00000-0  37496-3 0  9999
2 34102  86.3783  31.3580 0119410  51.5440  75.0807 14.25698179532999
IRIDIUM 33 DEB          
1 34103U 97051DN  19165.84815538  .00001138  00000-0  25203-3 0  9995
2 34103  86.3460 304.9143 0034805 112.9105  38.6617 14.55940435543691
IRIDIUM 33 DEB          
1 34104U 97051DP  19165.80721006  .00002930  00000-0  47860-3 0  9992
2 34104  86.3414 272.8553 0026661 229.5680 250.5203 14.70337221547996
IRIDIUM 33 DEB          
1 34105U 97051DQ  19165.78461696  .00008880  00000-0  75169-3 0  9999
2 34105  86.3419 263.4196 0010697 160.1929 199.9720 14.97857281549937
IRIDIUM 33 DEB          
1 34106U 97051DR  19165.93088817  .00000631  00000-0  15216-3 0  9990
2 34106  86.3618 305.4917 0018433  52.1766  71.4496 14.51542345544450
IRIDIUM 33 DEB          
1 34107U 97051DS  19165.94493963 -.00000252  00000-0 -64788-4 0  9994
2 34107  86.3856 313.0131 0011017  14.2562 102.1852 14.54190569544562
IRIDIUM 33 DEB          
1 34143U 97051DW  19165.93818840  .00001693  00000-0  33236-3 0  9999
2 34143  86.3895 313.0555 0007872 150.9840 329.6166 14.62131991544686
IRIDIUM 33 DEB          
1 34145U 97051DY  19165.82530123  .00000360  00000-0  13343-3 0  9991
2 34145  86.2177 290.6857 0061529 233.4331 126.1189 14.28573579536709
IRIDIUM 33 DEB          
1 34146U 97051DZ  19166.17179493  .00000124  00000-0  35028-4 0  9993
2 34146  86.2882 300.5981 0039831  91.0228  28.5173 14.36240377539792
IRIDIUM 33 DEB          
1 34147U 97051EA  19165.99730806  .00006315  00000-0  75042-3 0  9991
2 34147  86.4328 341.9777 0055225 179.4389 180.6906 14.83167255545208
IRIDIUM 33 DEB          
1 34148U 97051EB  19165.81910221  .00012986  00000-0  70984-3 0  9995
2 34148  86.3878 273.7761 0006690  13.3667 346.7749 15.14165026551576
IRIDIUM 33 DEB          
1 34150U 97051ED  19165.81011628  .00002906  00000-0  58091-3 0  9997
2 34150  86.4826  18.8830 0099631 345.4201 136.3955 14.58407535542199
IRIDIUM 33 DEB          
1 34155U 97051EJ  19166.05852105  .00003705  00000-0  70091-3 0  9994
2 34155  86.4640 357.5741 0066001 169.7716 316.5568 14.62704908543962
IRIDIUM 33 DEB          
1 34159U 97051EN  19166.16442774  .00000140  00000-0  43829-4 0  9997
2 34159  86.3519 332.3939 0033243 106.1611 254.3247 14.32883923539455
IRIDIUM 33 DEB          
1 34160U 97051EP  19166.15377546  .00000869  00000-0  17976-3 0  9993
2 34160  86.4130 336.1784 0038294 298.9079  60.8291 14.58705298542769
IRIDIUM 33 DEB          
1 34350U 97051ES  19165.93244809  .00000119  00000-0  31451-4 0  9997
2 34350  86.3284 304.5656 0023948  46.6200  74.2717 14.39634237541168
IRIDIUM 33 DEB          
1 34351U 97051ET  19165.89198085  .00001397  00000-0  26601-3 0  9996
2 34351  86.4218 320.9038 0044169 159.9555 200.3405 14.62729366545436
IRIDIUM 33 DEB          
1 34354U 97051EW  19166.15165289  .00003622  00000-0  44248-3 0  9999
2 34354  86.2097 217.5896 0022725 319.6487  40.3048 14.82832631547190
IRIDIUM 33 DEB          
1 34358U 97051FA  19165.58154878 -.00000199  00000-0 -55098-4 0  9995
2 34358  86.3248 297.2151 0009445 250.7732 231.7041 14.51529919542815
IRIDIUM 33 DEB          
1 34359U 97051FB  19165.80591512  .00002238  00000-0  33495-3 0  9991
2 34359  86.3565 281.3579 0029762 257.9912 101.7969 14.73953933547078
IRIDIUM 33 DEB          
1 34361U 97051FD  19165.76967208  .00006057  00000-0  56841-3 0  9991
2 34361  86.3487 282.0822 0012140 335.3891  24.6756 14.93760611546934
IRIDIUM 33 DEB          
1 34363U 97051FF  19165.92405862  .00001919  00000-0  45635-3 0  9995
2 34363  86.3526 321.5825 0038322 347.1520  12.8705 14.52943832540730
IRIDIUM 33 DEB          
1 34366U 97051FJ  19165.91429247  .00000383  00000-0  12175-3 0  9997
2 34366  86.3759 338.9681 0028188  65.6402  89.7259 14.37053011539989
IRIDIUM 33 DEB          
1 34367U 97051FK  19165.88428885  .00001943  00000-0  39983-3 0  9990
2 34367  86.4151 335.5343 0027539 219.1137 140.8083 14.59854359543397
IRIDIUM 33 DEB          
1 34368U 97051FL  19165.96485281  .00002247  00000-0  50203-3 0  9999
2 34368  86.3816 347.0186 0080990  44.1396  79.0963 14.54307144539183
IRIDIUM 33 DEB          
1 34375U 97051FT  19165.74593889  .00000184  00000-0  82230-4 0  9991
2 34375  86.4330  54.5654 0110394  70.7907 352.1645 14.13524017531581
IRIDIUM 33 DEB          
1 34376U 97051FU  19165.91884369  .00000571  00000-0  18723-3 0  9992
2 34376  86.3094 317.0769 0040616  98.8737 261.7062 14.36173637537939
IRIDIUM 33 DEB          
1 34378U 97051FW  19166.15854992  .00001883  00000-0  45404-3 0  9993
2 34378  86.3513 333.8318 0052311  47.5073 313.0534 14.51867770539507
IRIDIUM 33 DEB          
1 34486U 97051GB  19165.96448730  .00000614  00000-0  14861-3 0  9994
2 34486  86.4109 323.9247 0016366 285.5445 203.5996 14.51371698544181
IRIDIUM 33 DEB          
1 34487U 97051GC  19165.89122917  .00000088  00000-0  21452-4 0  9993
2 34487  86.3440 309.2934 0033376  32.7351  91.0792 14.39877385540974
IRIDIUM 33 DEB          
1 34488U 97051GD  19165.81694912  .00000649  00000-0  14575-3 0  9995
2 34488  86.3458 287.6649 0023586 242.4943 117.3867 14.54850666544446
IRIDIUM 33 DEB          
1 34489U 97051GE  19165.61396605  .00001742  00000-0  54384-3 0  9999
2 34489  86.4136  18.5663 0076976 182.3967 177.6874 14.38592802536060
IRIDIUM 33 DEB          
1 34490U 97051GF  19165.81550274  .00003620  00000-0  43822-3 0  9999
2 34490  86.3222 271.9743 0044346  19.9360  98.6122 14.82672001546056
IRIDIUM 33 DEB          
1 34492U 97051GH  19166.04273876  .00001106  00000-0  64448-3 0  9991
2 34492  86.5032 165.2397 0305242 343.7720  74.6901 13.87063188519415
IRIDIUM 33 DEB          
1 34493U 97051GJ  19165.45492523  .00001589  00000-0  28444-3 0  9999
2 34493  86.2649 260.3091 0061316  89.0550 271.7687 14.64923683543348
IRIDIUM 33 DEB          
1 34496U 97051GM  19165.85461399  .00002913  00000-0  86084-3 0  9999
2 34496  86.3900  18.7412 0075137 277.1863  82.0799 14.41572960534842
IRIDIUM 33 DEB          
1 34497U 97051GN  19165.49298166  .00000225  00000-0  92969-4 0  9994
2 34497  86.2802 336.4353 0090635   3.2528  57.9169 14.20025149532864
IRIDIUM 33 DEB          
1 34503U 97051GU  19165.71471522  .00000608  00000-0  12631-3 0  9998
2 34503  86.3181 267.2448 0004383  42.9699 317.1852 14.58508417545604
IRIDIUM 33 DEB          
1 34508U 97051GZ  19166.06867819  .00000548  00000-0  22215-3 0  9992
2 34508  86.3783  10.6544 0076395 277.2726  81.9786 14.24428811534400
IRIDIUM 33 DEB          
1 34511U 97051HC  19165.94393963  .00001082  00000-0  28368-3 0  9995
2 34511  86.3885 333.5809 0025540 304.6886 213.7482 14.48206145540861
IRIDIUM 33 DEB          
1 34517U 97051HJ  19165.82311576  .00001828  00000-0  25197-3 0  9993
2 34517  86.3619 285.1393 0004605 226.2949 289.4499 14.77657952546110
IRIDIUM 33 DEB          
1 34518U 97051HK  19165.91425910  .00003374  00000-0  47368-3 0  9994
2 34518  86.3885 303.5051 0022188 145.4019 214.8650 14.76978227545589
IRIDIUM 33 DEB          
1 34520U 97051HM  19165.80571629  .00003851  00000-0  47978-3 0  9991
2 34520  86.3603 291.1305 0014796  56.3095 303.9535 14.82146073545602
IRIDIUM 33 DEB          
1 34521U 97051HN  19165.93235646  .00000372  00000-0  10486-3 0  9991
2 34521  86.3855 328.4442 0004291 264.2342  95.8370 14.43137805541275
IRIDIUM 33 DEB          
1 34522U 97051HP  19165.91860892  .00003018  00000-0  63245-3 0  9998
2 34522  86.3659 329.7046 0031945 341.6084 148.4124 14.59115542540408
IRIDIUM 33 DEB          
1 34524U 97051HR  19166.12147128 -.00000520  00000-0 -13711-3 0  9994
2 34524  86.3434 311.2164 0032828 310.1220  49.7109 14.50672051541560
IRIDIUM 33 DEB          
1 34525U 97051HS  19165.91784394  .00000177  00000-0  52997-4 0  9999
2 34525  86.3742 331.7860 0003638 346.5078 166.9500 14.37031986539716
IRIDIUM 33 DEB          
1 34526U 97051HT  19165.83776248  .00002846  00000-0  44533-3 0  9991
2 34526  86.3403 290.5056 0020851 118.1914 242.1412 14.72285905544411
IRIDIUM 33 DEB          
1 34529U 97051HW  19165.68675128  .00000088  00000-0  22538-4 0  9990
2 34529  86.3642 323.0242 0009606  78.2226 282.0049 14.37810203540236
IRIDIUM 33 DEB          
1 34532U 97051HZ  19165.92316837  .00003350  00000-0  62405-3 0  9991
2 34532  86.3374 314.1231 0039664 264.6014  95.0673 14.64288529540790
IRIDIUM 33 DEB          
1 34535U 97051JC  19165.73660148  .00001511  00000-0  20490-3 0  9995
2 34535  86.3331 263.2579 0015616  30.5254 329.6871 14.78135746547747
IRIDIUM 33 DEB          
1 34538U 97051JF  19165.89017859  .00000127  00000-0  40127-4 0  9992
2 34538  86.2803 309.6629 0043800 128.5280 355.5157 14.31134300537431
IRIDIUM 33 DEB          
1 34540U 97051JH  19165.80275316  .00000457  00000-0  10707-3 0  9996
2 34540  86.3222 279.1657 0024479 285.5459 206.4483 14.52206598544532
IRIDIUM 33 DEB          
1 34643U 97051JU  19165.62227288  .00000867  00000-0  20478-3 0  9996
2 34643  86.3827 324.5519 0031517 287.8473  71.9296 14.52764831538248
IRIDIUM 33 DEB          
1 34648U 97051JZ  19165.35145510 -.00000282  00000-0 -20906-3 0  9997
2 34648  86.4106 126.7759 0233740 343.2047  16.1472 13.86034719519795
IRIDIUM 33 DEB          
1 34651U 97051KC  19165.67820814  .00000546  00000-0  29733-3 0  9991
2 34651  86.2957  39.9329 0191332  54.7528 307.1387 14.01445654525165
IRIDIUM 33 DEB          
1 34652U 97051KD  19165.79858775  .00000341  00000-0  88693-4 0  9996
2 34652  86.3357 295.6376 0035691 317.5930 198.5971 14.46441482541574
IRIDIUM 33 DEB          
1 34690U 97051KM  19165.42923736  .00000318  00000-0  89807-4 0  9990
2 34690  86.3851 331.8346 0008779   3.3771  26.3409 14.42579262537938
IRIDIUM 33 DEB          
1 34693U 97051KQ  19165.83730179  .00000712  00000-0  16351-3 0  9996
2 34693  86.3382 286.6326 0024388 245.5251 274.0112 14.53982159541407
IRIDIUM 33 DEB          
1 34696U 97051KT  19165.54198661  .00001372  00000-0  65065-3 0  9990
2 34696  86.2080 338.1818 0142421 225.5712 200.7528 14.13731199529148
IRIDIUM 33 DEB          
1 34702U 97051KZ  19165.28599003  .00000733  00000-0  14540-3 0  9996
2 34702  86.3097 258.9358 0043915 153.8832 206.4608 14.60151883546090
IRIDIUM 33 DEB          
1 34705U 97051LC  19165.53131697  .00004315  00000-0  72788-3 0  9996
2 34705  86.4638   0.6890 0075809 204.1302 155.6356 14.67348908542282
IRIDIUM 33 DEB          
1 34706U 97051LD  19165.96602031  .00002884  00000-0  29211-3 0  9991
2 34706  86.3193 236.6631 0033023  18.3460 104.9259 14.90151675548716
IRIDIUM 33 DEB          
1 34764U 97051LH  19165.61788786  .00003633  00000-0  43161-3 0  9992
2 34764  86.3580 279.3023 0001841 215.4983 144.6118 14.84183870545797
IRIDIUM 33 DEB          
1 34765U 97051LJ  19165.42870921  .00000162  00000-0  50382-4 0  9993
2 34765  86.3395 323.3696 0019570  65.2212 353.5814 14.34511361536285
IRIDIUM 33 DEB          
1 34773U 97051LS  19165.86115090  .00000962  00000-0  23026-3 0  9991
2 34773  86.4108 334.0578 0017340 183.5836 176.5248 14.52468018542982
IRIDIUM 33 DEB          
1 34774U 97051LT  19165.95324178  .00001620  00000-0  34498-3 0  9998
2 34774  86.4237 330.9598 0020708  97.6965  67.3650 14.58280934544973
IRIDIUM 33 DEB          
1 34775U 97051LU  19165.79833515  .00000710  00000-0  20495-3 0  9992
2 34775  86.3766 335.6990 0030661 347.6648  77.1024 14.43065253539127
IRIDIUM 33 DEB          
1 34825U 97051LZ  19165.87603328  .00001117  00000-0  26366-3 0  9999
2 34825  86.3714 316.2962 0012966 203.5451 310.2499 14.53348202539070
IRIDIUM 33 DEB          
1 34827U 97051MB  19165.68694539  .00005881  00000-0  78736-3 0  9994
2 34827  86.3789 293.5257 0032526 172.7454 253.3156 14.78914883543435
IRIDIUM 33 DEB          
1 34833U 97051MH  19165.71459270  .00000335  00000-0  99875-4 0  9993
2 34833  86.3969 337.5821 0024333  34.4374  93.2152 14.40002445534854
IRIDIUM 33 DEB          
1 34868U 97051MN  19165.64678504  .00001787  00000-0  38775-3 0  9999
2 34868  86.5384  47.2465 0126038  30.0088 330.8263 14.52657200534113
IRIDIUM 33 DEB          
1 34869U 97051MP  19165.36784207  .00002070  00000-0  63705-3 0  9994
2 34869  86.4547  31.7463 0047259 136.7563 223.7363 14.40449337530708
IRIDIUM 33 DEB          
1 34870U 97051MQ  19165.35633152  .00000482  00000-0  11923-3 0  9997
2 34870  86.3207 284.1954 0028345 290.5339 130.0322 14.49786617543697
IRIDIUM 33 DEB          
1 34889U 97051MR  19165.80058480  .00001680  00000-0  31790-3 0  9997
2 34889  86.3685 302.8942 0011739 119.5521 240.6863 14.63761051541589
IRIDIUM 33 DEB          
1 34890U 97051MS  19165.86925080  .00001581  00000-0  41340-3 0  9996
2 34890  86.3038 319.5560 0075324  86.6912 274.2905 14.47067059533504
IRIDIUM 33 DEB          
1 34896U 97051MY  19165.63934207  .00000366  00000-0  89800-4 0  9992
2 34896  86.3349 288.0986 0034474 282.4937 139.2412 14.49330969538492
IRIDIUM 33 DEB          
1 34898U 97051NA  19165.68651477  .00000967  00000-0  16786-3 0  9993
2 34898  86.3335 262.8078 0027065 115.6638 244.7376 14.66874080541417
IRIDIUM 33 DEB          
1 34899U 97051NB  19166.19754809  .00003731  00000-0  51720-3 0  9993
2 34899  86.4001 313.3299 0027418 129.7219 355.6144 14.77450455537552
IRIDIUM 33 DEB          
1 34926U 97051NF  19165.91928514  .00001437  00000-0  68446-3 0  9993
2 34926  86.1556 326.1906 0177189 290.6421 195.6469 14.10905954527542
IRIDIUM 33 DEB          
1 34928U 97051NH  19164.67441492  .00000803  00000-0  16861-3 0  9992
2 34928  86.4015 305.8378 0031849 222.1455 137.7305 14.58047784540274
IRIDIUM 33 DEB          
1 34983U 97051NP  19164.68070063  .00003259  00000-0  56637-3 0  9999
2 34983  86.3581 311.7755 0036611 191.0734 168.9679 14.67429299318518
IRIDIUM 33 DEB          
1 34985U 97051NR  19165.52054985  .00000281  00000-0  92609-4 0  9992
2 34985  86.3712 339.3061 0025872  76.3975 343.5566 14.34267079531334
IRIDIUM 33 DEB          
1 34986U 97051NS  19165.89219558  .00001623  00000-0  39807-3 0  9993
2 34986  86.3842 330.2621 0024350 289.8256  70.0325 14.51695013533197
IRIDIUM 33 DEB          
1 34987U 97051NT  19165.99959374  .00001551  00000-0  20355-3 0  9990
2 34987  86.3380 259.8154 0010273  98.6401 261.5984 14.79590550548294
IRIDIUM 33 DEB          
1 35049U 97051NV  19165.79276863  .00000444  00000-0  88160-4 0  9992
2 35049  86.3721 300.7406 0020619   0.8132 359.3107 14.59707407369372
IRIDIUM 33 DEB          
1 35050U 97051NW  19165.69773337  .00001646  00000-0  21241-3 0  9992
2 35050  86.3053 257.3545 0029315  71.4821 288.9581 14.80040009538557
IRIDIUM 33 DEB          
1 35051U 97051NX  19165.66698350  .00000220  00000-0  66138-4 0  9993
2 35051  86.3255 310.6637 0008198 356.0484   4.0648 14.37985291529093
IRIDIUM 33 DEB          
1 35052U 97051NY  19165.85408536  .00000099  00000-0  27683-4 0  9996
2 35052  86.3301 313.7338 0009783 286.5689  73.4432 14.35573861532126
IRIDIUM 33 DEB          
1 35054U 97051PA  19166.01155264  .00002217  00000-0  30484-3 0  9990
2 35054  86.3416 281.5375 0010583  55.9864 304.2360 14.77839052540195
IRIDIUM 33 DEB          
1 35077U 97051PC  19164.45572295  .00002655  00000-0  21034-3 0  9995
2 35077  86.2684 234.0376 0040868 311.3218  48.4498 14.99475228539373
IRIDIUM 33 DEB          
1 35079U 97051PE  19165.99878056  .00001258  00000-0  54948-3 0  9999
2 35079  86.4330  62.8433 0129289 174.6901 185.5694 14.18730395523970
IRIDIUM 33 DEB          
1 35080U 97051PF  19165.80508648  .00001572  00000-0  71196-3 0  9991
2 35080  86.2402 359.6648 0179627 275.5859  82.4864 14.13311577522491
IRIDIUM 33 DEB          
1 35293U 97051PH  19163.87203406  .00006219  00000-0  38996-3 0  9990
2 35293  86.3366 211.7594 0023544 105.5205 254.8633 15.08905267543254
IRIDIUM 33 DEB          
1 35294U 97051PJ  19165.62989675  .00001078  00000-0  23695-3 0  9993
2 35294  86.3271 289.4775 0014584 195.3688 224.7495 14.56562758533414
IRIDIUM 33 DEB          
1 35296U 97051PL  19160.63561196  .00000855  00000-0  21207-3 0  9994
2 35296  86.3124 290.7338 0010708 238.9853 121.0301 14.50756272365008
IRIDIUM 33 DEB          
1 35297U 97051PM  19165.84072058  .00000297  00000-0  95325-4 0  9990
2 35297  86.3893 343.4918 0017873  23.0059  43.9190 14.35951643529184
IRIDIUM 33 DEB          
1 35299U 97051PP  19165.41626650  .00000680  00000-0  26487-3 0  9996
2 35299  86.2931 328.4078 0066082 233.4732 155.2759 14.27166925525039
IRIDIUM 33 DEB          
1 35477U 97051PX  19165.85722444  .00002566  00000-0  77081-3 0  9991
2 35477  86.3714  14.8859 0094285 295.5638  63.5837 14.39822316524549
IRIDIUM 33 DEB          
1 35478U 97051PY  19164.26409407  .00004545  00000-0  68381-3 0  9999
2 35478  86.4487 356.9301 0055727 286.2787  73.2304 14.73204404532210
IRIDIUM 33 DEB          
1 35479U 97051PZ  19165.91271707  .00000795  00000-0  28191-3 0  9991
2 35479  86.3933  24.9441 0121822 359.5145   0.5909 14.29239421241944
IRIDIUM 33 DEB          
1 35480U 97051QA  19162.71809122  .00000321  00000-0  95618-4 0  9990
2 35480  86.3596 321.9849 0017268  43.1061 317.1486 14.39848165530764
IRIDIUM 33 DEB          
1 35483U 97051QD  19165.30471537  .00002589  00000-0  67845-3 0  9994
2 35483  86.4320   8.6933 0042660  60.8547 299.6916 14.48401055532605
IRIDIUM 33 DEB          
1 35487U 97051QH  19165.42530132  .00002889  00000-0  62497-3 0  9999
2 35487  86.3317 321.9220 0054953 356.8140  32.2693 14.57010906530735
IRIDIUM 33 DEB          
1 35488U 97051QJ  19164.56696372  .00000482  00000-0  10433-3 0  9993
2 35488  86.3373 276.7072 0040930 213.9440 145.9149 14.55584036535816
IRIDIUM 33 DEB          
1 35616U 97051QN  19166.12934921  .00000453  00000-0  11159-3 0  9999
2 35616  86.3647 304.8018 0017555 303.1108  56.8411 14.50008066532375
IRIDIUM 33 DEB          
1 35617U 97051QP  19164.77414103  .00009120  00000-0  87513-3 0  9991
2 35617  86.4778 355.8300 0047569 100.6371 260.0219 14.92105861531586
IRIDIUM 33 DEB          
1 35618U 97051QQ  19166.11342326  .00000149  00000-0  37578-4 0  9998
2 35618  86.3416 300.0215 0032226 347.5087  12.5311 14.44030558529196
IRIDIUM 33 DEB          
1 35620U 97051QS  19165.77565609  .00001256  00000-0  65549-3 0  9991
2 35620  86.3962  91.4472 0242724 135.7619 226.3249 13.99673449510214
IRIDIUM 33 DEB          
1 35622U 97051QU  19165.57235163  .00000680  00000-0  19128-3 0  9992
2 35622  86.2236 260.9057 0029301  38.6713  24.1661 14.44224277528416
IRIDIUM 33 DEB          
1 35624U 97051QW  19163.42870106  .00004276  00000-0  73609-3 0  9997
2 35624  86.3537 317.5952 0038321 296.9680  62.7623 14.67894922534766
IRIDIUM 33 DEB          
1 35625U 97051QX  19166.15782729  .00000627  00000-0  29482-3 0  9990
2 35625  86.1979 323.5886 0131047 169.4539 314.0303 14.13985588521353
IRIDIUM 33 DEB          
1 35627U 97051QZ  19165.73136538  .00000906  00000-0  21125-3 0  9992
2 35627  86.3526 321.9184 0050038 339.2079  20.7090 14.52948714530104
IRIDIUM 33 DEB          
1 35628U 97051RA  19166.14754635  .00000384  00000-0  10517-3 0  9996
2 35628  86.3635 316.4610 0017954 351.3954   8.6937 14.44525795527175
IRIDIUM 33 DEB          
1 35629U 97051RB  19165.48358804  .00003727  00000-0  67747-3 0  9992
2 35629  86.3690 342.3095 0121561  34.0643 326.8293 14.61147334524717
IRIDIUM 33 DEB          
1 35631U 97051RD  19166.17667916  .00000277  00000-0  78184-4 0  9994
2 35631  86.3676 315.4715 0020367  56.8153  69.0817 14.41987679532533
IRIDIUM 33 DEB          
1 35632U 97051RE  19165.97884086  .00000787  00000-0  30870-3 0  9996
2 35632  86.4281  45.1660 0101205  12.6479 347.7215 14.25408014518484
IRIDIUM 33 DEB          
1 35678U 97051RG  19165.28986250  .00003195  00000-0  41295-3 0  9995
2 35678  86.3529 277.0983 0005288  80.0631 280.1187 14.80631384531678
IRIDIUM 33 DEB          
1 35679U 97051RH  19165.25451333  .00010318  00000-0  77213-3 0  9996
2 35679  86.3093 264.4185 0009390   3.6413 356.4887 15.02598349534008
IRIDIUM 33 DEB          
1 35680U 97051RJ  19155.44923878  .00000576  00000-0  31986-3 0  9998
2 35680  86.1045 329.4575 0194249 120.6014 271.4106 14.00175053510065
IRIDIUM 33 DEB          
1 35732U 97051RK  19157.65077659  .00001580  00000-0  39747-3 0  9997
2 35732  86.2378 281.1768 0062764  61.1798 299.5688 14.49411872525567
IRIDIUM 33 DEB          
1 35735U 97051RN  19165.53614286  .00004615  00000-0  40206-3 0  9993
2 35735  86.3767 258.9222 0008168 238.0049 122.0388 14.96656399536568
IRIDIUM 33 DEB          
1 35737U 97051RQ  19165.99945635  .00002594  00000-0  58492-3 0  9990
2 35737  86.4208   2.7209 0045579  49.1379 103.0028 14.55347260533943
IRIDIUM 33 DEB          
1 35739U 97051RS  19162.82092999  .00003482  00000-0  65626-3 0  9991
2 35739  86.3941 343.7656 0057794 354.8612   5.1999 14.63198185534398
IRIDIUM 33 DEB          
1 35742U 97051RV  19165.48620764  .00003963  00000-0  84576-3 0  9996
2 35742  86.4227 352.0867 0053050 215.0497 144.7218 14.57790039528966
IRIDIUM 33 DEB          
1 35744U 97051RX  19166.11091615  .00000428  00000-0  10485-3 0  9997
2 35744  86.3360 288.8005 0030671 281.0037  78.7718 14.49853025529432
IRIDIUM 33 DEB          
1 35745U 97051RY  19165.48612920  .00003352  00000-0  80919-3 0  9993
2 35745  86.3579 353.8081 0059306 134.6716 225.9346 14.51817192523294
IRIDIUM 33 DEB          
1 35749U 97051SC  19165.41779384  .00000852  00000-0  19512-3 0  9991
2 35749  86.3773 314.1333 0017731 136.2054 224.0562 14.54406362524054
IRIDIUM 33 DEB          
1 35797U 97051SF  19165.67329281  .00000524  00000-0  12838-3 0  9999
2 35797  86.3465 295.4035 0022222 289.2993  70.5809 14.50478437529328
IRIDIUM 33 DEB          
1 35799U 97051SH  19166.16691554  .00001901  00000-0  44390-3 0  9999
2 35799  85.9377 133.1625 0068974 280.8463  78.4985 14.52779961536949
IRIDIUM 33 DEB          
1 35800U 97051SJ  19162.83400658  .00003505  00000-0  29382-3 0  9991
2 35800  86.2642 203.9018 0022809 196.3645 163.6852 14.97882155540734
IRIDIUM 33 DEB          
1 35802U 97051SL  19166.05070596  .00002797  00000-0  77713-3 0  9998
2 35802  86.4597  31.5812 0098612 146.6611 214.0854 14.43284967533104
IRIDIUM 33 DEB          
1 35805U 97051SP  19165.30156780  .00001371  00000-0  50696-3 0  9996
2 35805  86.3298 359.9687 0114847   3.7586 356.4441 14.28145628514312
IRIDIUM 33 DEB          
1 35806U 97051SQ  19162.74937053  .00000412  00000-0  12645-3 0  9999
2 35806  86.3477 323.0769 0017676  22.8348 337.3633 14.39233241520853
IRIDIUM 33 DEB          
1 35809U 97051ST  19165.68679609  .00000483  00000-0  12523-3 0  9991
2 35809  86.3363 297.5223 0021547 321.3005 103.9394 14.47634035523814
IRIDIUM 33 DEB          
1 35844U 97051SU  19165.91856739  .00006503  00000-0  49924-3 0  9991
2 35844  86.3017 232.0341 0015397  25.3514 334.8471 15.01517729529005
IRIDIUM 33 DEB          
1 35846U 97051SW  19164.79661059  .00000248  00000-0  80180-4 0  9997
2 35846  86.3779 340.9615 0020118  39.6064 320.6597 14.34893666516370
IRIDIUM 33 DEB          
1 35848U 97051SY  19165.76489094  .00000536  00000-0  13645-3 0  9995
2 35848  86.3991 322.9564 0014278 321.3198  38.6982 14.48810470517462
IRIDIUM 33 DEB          
1 35850U 97051TA  19165.67288353  .00000463  00000-0  11559-3 0  9994
2 35850  86.3586 303.4869 0017409 309.7176  50.2493 14.49426158368167
IRIDIUM 33 DEB          
1 35851U 97051TB  19162.83121214  .00002049  00000-0  40677-3 0  9997
2 35851  86.4161 350.6458 0069489 325.2068  34.4607 14.60191931534565
IRIDIUM 33 DEB          
1 35853U 97051TD  19137.79212897  .00003019  00000-0  70089-3 0  9992
2 35853  86.3074 322.4589 0065671  99.2460 261.6182 14.53351880510956
IRIDIUM 33 DEB          
1 35856U 97051TG  19165.85323490  .00002978  00000-0  46500-3 0  9999
2 35856  86.3692 297.7758 0064474  78.5022  76.3217 14.71098446522297
IRIDIUM 33 DEB          
1 35857U 97051TH  19164.38400985  .00000873  00000-0  15795-3 0  9996
2 35857  86.4294 317.7578 0051495 180.6356 179.4800 14.64299653531652
IRIDIUM 33 DEB          
1 35858U 97051TJ  19162.39810653  .00004320  00000-0  91999-3 0  9994
2 35858  86.3566 323.2105 0016521 196.9814 163.0845 14.58715840339346
IRIDIUM 33 DEB          
1 35862U 97051TN  19164.82146920  .00001553  00000-0  21190-3 0  9999
2 35862  86.3722 291.1171 0029282  60.6606  66.2686 14.77652228527072
IRIDIUM 33 DEB          
1 35863U 97051TP  19165.78705780  .00002380  00000-0  61691-3 0  9990
2 35863  86.3411 334.4769 0093552 110.2710 250.8579 14.46778455518700
IRIDIUM 33 DEB          
1 35911U 97051TU  19166.11488013  .00000857  00000-0  31941-3 0  9991
2 35911  86.2341 312.8474 0089496 308.3129  51.0040 14.28751242528658
IRIDIUM 33 DEB          
1 35915U 97051TY  19165.66257294  .00000503  00000-0  12724-3 0  9995
2 35915  86.3537 303.3249 0021621 305.3936  54.5247 14.48852266519189
IRIDIUM 33 DEB          
1 35917U 97051UA  19165.67369981  .00000672  00000-0  12254-3 0  9990
2 35917  86.3853 304.7277 0025732 146.2452 214.0406 14.64265854520305
IRIDIUM 33 DEB          
1 35918U 97051UB  19164.85067310  .00000445  00000-0  14531-3 0  9999
2 35918  86.4074 354.9653 0033336  71.7720 348.1353 14.36012714510411
IRIDIUM 33 DEB          
1 35921U 97051UE  19163.45665973  .00002176  00000-0  86227-3 0  9991
2 35921  86.4243  56.8496 0139004 129.3802 231.9797 14.23289532312372
IRIDIUM 33 DEB          
1 35922U 97051UF  19164.68330274  .00000958  00000-0  22029-3 0  9997
2 35922  86.3894 317.3042 0028731 249.6516 110.1604 14.54173810518758
IRIDIUM 33 DEB          
1 35925U 97051UJ  19165.57934989  .00003288  00000-0  44335-3 0  9995
2 35925  86.3135 267.0320 0006337 336.2615  23.8312 14.78857717535576
IRIDIUM 33 DEB          
1 35926U 97051UK  19165.28883630  .00001124  00000-0  22674-3 0  9999
2 35926  86.3455 287.9780 0005895 232.6676 127.3998 14.60623571525576
IRIDIUM 33 DEB          
1 35929U 97051UN  19164.08081634  .00000665  00000-0  14946-3 0  9995
2 35929  86.3503 288.9945 0029557 235.5568 124.2846 14.54743481530907
IRIDIUM 33 DEB          
1 36011U 97051US  19165.22262940  .00000219  00000-0  70448-4 0  9991
2 36011  86.3423 325.7050 0022453  71.4306  49.4056 14.34447830513766
IRIDIUM 33 DEB          
1 36012U 97051UT  19165.39196284  .00001237  00000-0  71989-3 0  9998
2 36012  86.4509 145.5800 0314163 335.2073  23.4267 13.86123358505396
IRIDIUM 33 DEB          
1 36017U 97051UY  19166.04790802  .00003166  00000-0  39098-3 0  9990
2 36017  86.3652 280.4747 0011675 330.7205 152.1999 14.82491185521413
IRIDIUM 33 DEB          
1 36019U 97051VA  19165.39212118  .00000805  00000-0  18112-3 0  9999
2 36019  86.3932 314.9684 0006451 344.7519  44.9668 14.55252586517997
IRIDIUM 33 DEB          
1 36021U 97051VC  19165.63125679  .00002792  00000-0  91599-3 0  9991
2 36021  86.4197  36.8463 0136077 332.7980  26.6129 14.32923629243203
IRIDIUM 33 DEB          
1 36023U 97051VE  19163.38382033  .00001578  00000-0  36976-3 0  9991
2 36023  86.3391 308.0136 0024758 262.7268  97.1124 14.53788796517113
IRIDIUM 33 DEB          
1 36025U 97051VG  19164.45359594  .00001758  00000-0  38886-3 0  9990
2 36025  86.5615  62.5346 0048646 356.6770   3.4107 14.55977496517800
IRIDIUM 33 DEB          
1 36028U 97051VK  19165.09169303  .00000645  00000-0  14704-3 0  9998
2 36028  86.3372 283.6505 0032509 234.9877 124.8278 14.53948689525111
IRIDIUM 33 DEB          
1 36080U 97051VM  19161.14408577  .00000266  00000-0  82080-4 0  9999
2 36080  86.3207 311.6838 0021689  71.5703 288.7850 14.37457204513648
IRIDIUM 33 DEB          
1 36081U 97051VN  19165.76752067  .00001734  00000-0  49340-3 0  9990
2 36081  86.2336 287.6027 0069788 113.3599 247.4964 14.43347535280183
IRIDIUM 33 DEB          
1 36083U 97051VQ  19162.21003750  .00000235  00000-0  74706-4 0  9997
2 36083  86.3445 326.7527 0032050  96.0347 264.4503 14.35227750514205
IRIDIUM 33 DEB          
1 36390U 97051VU  19164.55004481  .00000597  00000-0  14615-3 0  9992
2 36390  86.3036 274.6857 0044448 264.7451  94.8681 14.50241741537843
IRIDIUM 33 DEB          
1 36482U 97051VY  19165.67635939  .00000667  00000-0  15629-3 0  9990
2 36482  86.3431 291.3788 0017522 285.9139  74.0136 14.53041802521290
IRIDIUM 33 DEB          
1 36483U 97051VZ  19165.75732464  .00000275  00000-0  86059-4 0  9992
2 36483  86.3822 336.7796 0010405  24.5203 335.6487 14.37080794310083
IRIDIUM 33 DEB          
1 36485U 97051WB  19165.97676603  .00001521  00000-0  56019-3 0  9997
2 36485  86.4468  53.1519 0108685  20.5919 339.9602 14.28742087495960
IRIDIUM 33 DEB          
1 36486U 97051WC  19165.62073650  .00000479  00000-0  88787-4 0  9992
2 36486  86.3526 288.7131 0022369 162.8884 197.3087 14.62921311315710
IRIDIUM 33 DEB          
1 36487U 97051WD  19162.98400427  .00002622  00000-0  12664-2 0  9996
2 36487  86.3727  61.4141 0159530 313.2329  45.5624 14.11877375493451
IRIDIUM 33 DEB          
1 36488U 97051WE  19164.08771768  .00291954  00000-0  29325-2 0  9999
2 36488  86.4141 287.8769 0006351 250.8802 109.1778 15.64552594529872
IRIDIUM 33 DEB          
1 36490U 97051WG  19165.39063506  .00000495  00000-0  13274-3 0  9996
2 36490  86.3764 319.7915 0003521  95.6324 264.5280 14.46201056520107
IRIDIUM 33 DEB          
1 36492U 97051WJ  19164.21426994  .00001253  00000-0  27290-3 0  9998
2 36492  86.4249 334.3551 0014988 122.0793 238.1873 14.57141197529410
IRIDIUM 33 DEB          
1 36493U 97051WK  19165.74790539  .00000363  00000-0  10057-3 0  9991
2 36493  86.3630 317.5846 0015545 359.0265   1.0903 14.43876872527385
IRIDIUM 33 DEB          
1 36495U 97051WM  19165.78272175  .00008065  00000-0  68136-3 0  9996
2 36495  86.3884 294.7860 0005163 272.1374  87.9266 14.97960527345159
IRIDIUM 33 DEB          
1 36497U 97051WP  19164.54130012  .00000273  00000-0  83005-4 0  9990
2 36497  86.1637 246.8158 0073563  41.8871  16.2779 14.36761797518859
IRIDIUM 33 DEB          
1 36563U 97051WS  19165.63870684  .00001337  00000-0  19194-3 0  9990
2 36563  86.3558 288.5197 0045928 144.2235 216.2075 14.74933716521263
IRIDIUM 33 DEB          
1 36566U 97051WV  19165.03162718  .00000599  00000-0  26066-3 0  9994
2 36566  86.4324  80.1421 0163343 281.1079  77.1778 14.15822822507092
IRIDIUM 33 DEB          
1 36642U 97051XC  19164.14582284  .00002003  00000-0  36583-3 0  9991
2 36642  86.3693 306.3204 0023924  95.3929 265.0014 14.65286184521329
IRIDIUM 33 DEB          
1 37136U 97051XG  19157.66101348  .00000226  00000-0  93141-4 0  9996
2 37136  86.1741 293.8532 0086111  30.1145 330.4953 14.20267328519661
IRIDIUM 33 DEB          
1 37548U 97051XH  19164.72393688  .00000408  00000-0  13474-3 0  9990
2 37548  86.3566 335.4715 0033833  83.4342 277.0704 14.35266775517584
IRIDIUM 33 DEB          
1 37549U 97051XJ  19165.43432925  .00002633  00000-0  56972-3 0  9990
2 37549  86.3832 335.5650 0040729 288.8760  70.8034 14.57407783519359
IRIDIUM 33 DEB          
1 37550U 97051XK  19165.73263979  .00000452  00000-0  12498-3 0  9998
2 37550  86.3839 325.5505 0003818 126.0170 234.1386 14.44550930519390
IRIDIUM 33 DEB          
1 37555U 97051XQ  19164.83551632  .00002661  00000-0  55234-3 0  9998
2 37555  86.4664   4.1559 0033982   9.1109 351.0710 14.59463323328112
IRIDIUM 33 DEB          
1 37557U 97051XS  19165.38192501  .00002628  00000-0  90960-3 0  9995
2 37557  86.3739  33.3255 0140386  70.7664 290.8657 14.29938611510218
IRIDIUM 33 DEB          
1 37558U 97051XT  19164.81049465  .00001258  00000-0  31243-3 0  9990
2 37558  86.4039 342.7410 0081991  30.1569 330.4317 14.49016596488986
IRIDIUM 33 DEB          
1 37560U 97051XV  19164.91680737  .00002597  00000-0  78518-3 0  9990
2 37560  86.3870  16.4637 0092993 265.3690 159.3218 14.39568273489430
IRIDIUM 33 DEB          
1 37562U 97051XX  19162.80997780  .00000456  00000-0  14005-3 0  9990
2 37562  86.3802 336.9526 0032360  56.5913   9.0716 14.39169669520474
IRIDIUM 33 DEB          
1 37565U 97051YA  19164.70487489  .00000239  00000-0  66361-4 0  9996
2 37565  86.3502 311.3969 0015388  45.2651 314.9799 14.42194716510111
IRIDIUM 33 DEB          
1 37566U 97051YB  19165.35554047  .00057098  00000-0  22008-2 0  9997
2 37566  86.4140 307.7277 0005714 201.3193 158.7816 15.26082287502331
IRIDIUM 33 DEB          
1 38016U 97051YC  19165.41187376  .00006656  00000-0  83500-3 0  9991
2 38016  86.3967 320.7892 0033005 127.2516 263.1839 14.81645802423454
IRIDIUM 33 DEB          
1 38017U 97051YD  19165.99027005  .00000529  00000-0  26469-3 0  9991
2 38017  86.3486  62.1689 0210778  44.4835 317.3052 14.04041011434548
IRIDIUM 33 DEB          
1 38019U 97051YF  19164.85929016  .00002480  00000-0  63190-3 0  9990
2 38019  86.3980   9.2345 0083840 175.6980 184.4964 14.48123058486302
IRIDIUM 33 DEB          
1 38020U 97051YG  19165.38707940  .00001642  00000-0  69834-3 0  9991
2 38020  86.3087  30.6552 0179528 284.9303  73.2067 14.16489975502780
IRIDIUM 33 DEB          
1 38022U 97051YJ  19165.71930426  .00000640  00000-0  24508-3 0  9993
2 38022  86.2778 317.3300 0057230 187.2405 172.7968 14.28197194352349
IRIDIUM 33 DEB          
1 38023U 97051YK  19165.89530324  .00002537  00000-0  72395-3 0  9990
2 38023  86.4129  33.2331 0105341 293.0917  65.9206 14.41640233363804
IRIDIUM 33 DEB          
1 38024U 97051YL  19164.49346229  .00001729  00000-0  59242-3 0  9993
2 38024  86.4814  64.5272 0121492 355.0897   4.9095 14.31598640507798
IRIDIUM 33 DEB          
1 38025U 97051YM  19166.08357817  .00001087  00000-0  44911-3 0  9990
2 38025  86.4973  97.9005 0159586 227.1140 190.7466 14.19300542522515
IRIDIUM 33 DEB          
1 38028U 97051YQ  19166.10950478  .00000229  00000-0  65864-4 0  9996
2 38028  86.3273 303.3409 0031644  35.9978 324.3343 14.39999485489399
IRIDIUM 33 DEB          
1 38030U 97051YS  19165.80926871  .00002546  00000-0  54963-3 0  9996
2 38030  86.3670 350.3185 0081251  94.8780 266.1710 14.55894565438992
IRIDIUM 33 DEB          
1 38033U 97051YV  19165.87247555  .00002632  00000-0  27614-3 0  9990
2 38033  86.2775 218.3362 0016684 302.5486  57.4127 14.89025929902570
IRIDIUM 33 DEB          
1 38224U 97051YY  19165.32178790  .00002614  00000-0  78779-3 0  9994
2 38224  86.3793  18.0590 0101304 297.8807  61.2159 14.39282301356124
IRIDIUM 33 DEB          
1 38226U 97051ZA  19165.39772123  .00003298  00000-0  67247-3 0  9990
2 38226  86.3779 317.5387 0006467 230.6707 129.3931 14.60716581520032
IRIDIUM 33 DEB          
1 38227U 97051ZB  19158.09969372  .00000784  00000-0  18973-3 0  9993
2 38227  86.3114 288.0747 0005998 313.9390  46.1320 14.51858455516275
IRIDIUM 33 DEB          
1 38228U 97051ZC  19162.75816181  .00000196  00000-0  76893-4 0  9994
2 38228  86.2951 333.0503 0065043 249.8378 169.7870 14.23185027509591
IRIDIUM 33 DEB          
1 38229U 97051ZD  19157.13254206  .00001052  00000-0  60810-3 0  9998
2 38229  86.3787  99.0938 0233298 223.1857 135.0818 13.95478440482520
IRIDIUM 33 DEB          
1 38231U 97051ZF  19166.00418118  .00008708  00000-0  10307-2 0  9991
2 38231  86.2469 250.0982 0054163 112.1947  13.7022 14.83405408523095
IRIDIUM 33 DEB          
1 38232U 97051ZG  19164.36417117  .00004280  00000-0  11586-2 0  9998
2 38232  86.4519  40.1386 0076315 175.8536 184.3316 14.45799811520633
IRIDIUM 33 DEB          
1 38233U 97051ZH  19160.81858976  .00002026  00000-0  88126-3 0  9998
2 38233  86.2124 351.0373 0163630 259.4250 160.4671 14.16771779488096
IRIDIUM 33 DEB          
1 38234U 97051ZJ  19164.25177955  .00004569  00000-0  83329-3 0  9996
2 38234  86.4441 355.8478 0076686 185.2307 174.8114 14.63885019501892
IRIDIUM 33 DEB          
1 38235U 97051ZK  19165.65713866  .00003020  00000-0  45471-3 0  9996
2 38235  86.3906 306.1090 0023505 165.9676 194.2200 14.73928379906645
IRIDIUM 33 DEB          
1 38236U 97051ZL  19165.09929186  .00002490  00000-0  83291-3 0  9991
2 38236  86.2510 302.0608 0068728 163.5013 196.8443 14.35705628273294
IRIDIUM 33 DEB          
1 38237U 97051ZM  19165.31702594  .00003536  00000-0  44520-3 0  9993
2 38237  86.3701 294.1753 0008402  11.8422  17.4383 14.81742682285322
IRIDIUM 33 DEB          
1 38241U 97051ZR  19166.10114517  .00000187  00000-0  50117-4 0  9997
2 38241  86.3262 300.9851 0004088  51.8705 308.2863 14.42620331495801
IRIDIUM 33 DEB          
1 38243U 97051ZT  19161.15125613  .00001383  00000-0  28618-3 0  9997
2 38243  86.3752 312.7268 0053944 200.3341 159.5722 14.58674102297265
IRIDIUM 33 DEB          
1 38244U 97051ZU  19165.10249629  .00004423  00000-0  45416-3 0  9994
2 38244  86.4213 302.7392 0012353 131.3080 228.9212 14.90114750500365
IRIDIUM 33 DEB          
1 38469U 97051ZW  19160.86442928  .00001625  00000-0  69473-3 0  9998
2 38469  86.2827  17.0764 0180779 231.1071 127.3874 14.16072522521221
IRIDIUM 33 DEB          
1 38470U 97051ZX  19164.45386015  .00001860  00000-0  58362-3 0  9999
2 38470  86.4926  60.8670 0100206 254.6363 104.3745 14.37247478529775
IRIDIUM 33 DEB          
1 38471U 97051ZY  19164.49654608  .00004088  00000-0  38835-3 0  9998
2 38471  86.2769 238.0454 0013326  42.0376 318.1872 14.93179112486260
IRIDIUM 33 DEB          
1 38474U 97051AAB 19165.70182507  .00000338  00000-0  98701-4 0  9993
2 38474  86.3449 311.3809 0029591  27.2359 333.0385 14.40920477521507
IRIDIUM 33 DEB          
1 38477U 97051AAE 19165.94204431  .00000739  00000-0  68422-3 0  9994
2 38477  86.4234 238.2920 0478647  93.0394 272.5609 13.39247460447744
IRIDIUM 33 DEB          
1 39594U 97051AAG 19159.25046827  .00000787  00000-0  21174-3 0  9991
2 39594  86.4060 340.1866 0009502 264.4447  95.5672 14.46828095292049
IRIDIUM 33 DEB          
1 39595U 97051AAH 19139.85246043  .00003016  00000-0  55782-3 0  9998
2 39595  86.3695 331.6362 0053777 282.8874  76.6334 14.64148874330060
IRIDIUM 33 DEB          
1 39777U 97051AAJ 19164.83837181  .00000667  00000-0  26058-3 0  9998
2 39777  85.9810 203.1743 0087412 331.3770  28.2636 14.26166171261687
IRIDIUM 33 DEB          
1 39778U 97051AAK 19164.76544004  .00000407  00000-0  12385-3 0  9990
2 39778  86.3826 334.4897 0008777 330.9534  29.1175 14.39681481291690
IRIDIUM 33 DEB          
1 39779U 97051AAL 19165.72464330  .00001018  00000-0  33559-3 0  9996
2 39779  86.2945 319.8725 0067178 152.9350 269.3511 14.35923958368508
IRIDIUM 33 DEB          
1 39781U 97051AAN 19166.15856573  .00000128  00000-0  68259-4 0  9998
2 39781  86.3833 116.4148 0278496   6.4915  47.2581 13.88323795390915
IRIDIUM 33 DEB          
1 39782U 97051AAP 19162.71120580  .00002410  00000-0  39823-3 0  9999
2 39782  86.4128 311.3613 0016187 153.8512 270.3880 14.69909517392852
IRIDIUM 33 DEB          
1 39783U 97051AAQ 19161.55655271  .00000253  00000-0  75533-4 0  9993
2 39783  86.1695 263.2548 0069526 186.0960 232.5452 14.37525901378003
IRIDIUM 33 DEB          
1 39784U 97051AAR 19164.21182779  .00003171  00000-0  57270-3 0  9997
2 39784  86.3723 340.2296 0076071 321.8664  37.7179 14.64265694386298
IRIDIUM 33 DEB          
1 39786U 97051AAT 19164.15796591  .00001875  00000-0  32384-3 0  9993
2 39786  86.3687 299.1195 0009510  88.6886  34.9958 14.67888636372263
IRIDIUM 33 DEB          
1 39790U 97051AAX 19164.44190740  .00000531  00000-0  10766-3 0  9992
2 39790  86.1940 223.0204 0040813 264.4046  95.2508 14.58778238538506
IRIDIUM 33 DEB          
1 39792U 97051AAZ 19165.52681206  .00002096  00000-0  10836-2 0  9991
2 39792  86.4214  95.7756 0194850  35.5280 325.8693 14.05280144271472
IRIDIUM 33 DEB          
1 39793U 97051ABA 19163.98888186  .00028249  00000-0  11146-2 0  9999
2 39793  86.3425 247.7380 0013377 132.7388 227.4986 15.25335609754873
IRIDIUM 33 DEB          
1 40992U 97051ABE 19139.66445896 -.00000420  00000-0 -91724-4 0  9992
2 40992  86.3056 286.6244 0020528 312.7233 107.0163 14.60223706383603
IRIDIUM 33 DEB          
1 40993U 97051ABF 19164.38995044  .00002219  00000-0  40933-3 0  9996
2 40993  86.3751 309.8535 0025329 141.5042 249.8626 14.64875508365513
IRIDIUM 33 DEB          
1 40994U 97051ABG 19165.67347449  .00001305  00000-0  22202-3 0  9994
2 40994  86.3910 297.9758 0011448 153.5085 206.6717 14.68297479251281
IRIDIUM 33 DEB          
1 40995U 97051ABH 19164.78825296  .00000999  00000-0  27026-3 0  9994
2 40995  86.3910 337.6525 0040619   7.3704  55.6110 14.46324151164244
IRIDIUM 33 DEB          
1 40996U 97051ABJ 19165.39735135  .00000725  00000-0  19252-3 0  9994
2 40996  86.3726 319.0711 0013706 159.5548 230.1061 14.47289718279213
IRIDIUM 33 DEB          
1 40997U 97051ABK 19162.60234902  .00006474  00000-0  55567-3 0  9998
2 40997  86.3535 273.8590 0012335 197.5283 162.5523 14.97265144421783
IRIDIUM 33 DEB          
1 40998U 97051ABL 19160.26533859  .00000280  00000-0  87215-4 0  9997
2 40998  86.3847 339.4662 0007819 351.9584 132.8401 14.37345430728933
