BREEZE-M R/B            
1 38746U 12044C   19171.07875669  .00003406  00000-0  21622-3 0  9995
2 38746  49.6801 299.2159 2410551 143.6860 235.4607 10.49441474259305
BREEZE-M DEB            
1 38884U 12044R   19171.05851714  .00000537  19993-5  33417-4 0  9995
2 38884  50.0265  65.7984 2305895 245.8152  88.5477 10.82218411258045
BREEZE-M DEB            
1 38888U 12044V   19170.29414060  .00010600  51017-5  21625-3 0  9995
2 38888  50.0295  95.9361 1800163  83.7958 296.3884 11.93222425273968
BREEZE-M DEB            
1 38921U 12044BE  19171.13230503  .00027161  49084-5  33492-3 0  9991
2 38921  50.2001 199.9927 1425256 233.0605 113.1260 12.79358549279367
BREEZE-M DEB            
1 38922U 12044BF  19170.63497290  .00004380  37761-5  13024-3 0  9990
2 38922  50.0575 188.4184 2137278  63.1638 317.1491 11.18882510263708
BREEZE-M DEB            
1 38926U 12044BK  19170.25356224  .00031985  50356-5  58422-3 0  9990
2 38926  49.9939 125.7477 1566075   1.7547 358.8000 12.43421727280928
BREEZE-M DEB            
1 38948U 12044CH  19170.36181126  .00018823  44062-5  34788-3 0  9995
2 38948  50.0710 296.5708 1682702 202.0578 149.8660 12.18620941277233
BREEZE-M DEB            
1 38957U 12044CQ  19170.91212843  .00020738  52941-5  35042-3 0  9994
2 38957  50.0159  65.1930 1706574 114.9458 263.8086 12.14819116273706
BREEZE-M DEB            
1 38959U 12044CS  19170.40604004  .00042324  71368-5  44690-3 0  9992
2 38959  49.9750 314.6748 1111319  84.5440 288.0948 13.50027541250302
BREEZE-M DEB            
1 38960U 12044CT  19170.40955706  .00007408  34676-5  17540-3 0  9991
2 38960  50.1376 275.5394 1874950 269.6845  69.0226 11.75328860269530
BREEZE-M DEB            
1 38961U 12044CU  19169.56460117  .00019466  44040-5  35190-3 0  9998
2 38961  50.0829 288.0202 1680084 203.3758 148.1120 12.19451671277426
BREEZE-M DEB            
1 38971U 12044DE  19167.01045366  .00023637  46023-5  40600-3 0  9992
2 38971  50.0851 149.3379 1537869 318.4800  30.8639 12.50514946279675
