BREEZE-M R/B            
1 38746U 12044C   19169.74568264  .00003608  00000-0  22839-3 0  9991
2 38746  49.6804 302.3412 2410630 141.0457 239.1470 10.49432970248519
BREEZE-M DEB            
1 38884U 12044R   19170.04268980  .00000628  20080-5  35939-4 0  9991
2 38884  50.0258  68.3113 2305831 243.7338  90.9079 10.82216460257937
BREEZE-M DEB            
1 38888U 12044V   19169.28897307  .00011414  50990-5  23092-3 0  9994
2 38888  50.0292  98.9272 1800196  81.3229 298.6355 11.93199128273848
BREEZE-M DEB            
1 38921U 12044BE  19170.11686327  .00028482  49354-5  35043-3 0  9998
2 38921  50.1998 203.4476 1425498 230.2318 116.4254 12.79305431279236
BREEZE-M DEB            
1 38922U 12044BF  19169.47357438  .00004896  37628-5  14196-3 0  9994
2 38922  50.0575 191.4748 2137365  60.6441 319.0878 11.18869847263572
BREEZE-M DEB            
1 38926U 12044BK  19169.28887340  .00030679  49957-5  56154-3 0  9993
2 38926  49.9936 128.8593 1566340 359.1753   0.6576 12.43358848280745
BREEZE-M DEB            
1 38948U 12044CH  19169.54184326  .00018341  44282-5  34027-3 0  9993
2 38948  50.0685 299.1070 1682751 199.9679 152.6834 12.18587162277091
BREEZE-M DEB            
1 38957U 12044CQ  19170.08947808  .00021604  53076-5  36470-3 0  9997
2 38957  50.0170  67.7295 1706612 112.8447 266.1277 12.14785978273581
BREEZE-M DEB            
1 38959U 12044CS  19169.44366583  .00041286  71223-5  43645-3 0  9996
2 38959  49.9747 318.3450 1111683  81.5003 291.0063 13.49947876250172
BREEZE-M DEB            
1 38960U 12044CT  19169.30406675  .00007158  34679-5  16933-3 0  9994
2 38960  50.1362 278.7231 1875382 267.0688  71.5245 11.75310274218080
BREEZE-M DEB            
1 38961U 12044CU  19169.56460117  .00019466  44040-5  35190-3 0  9998
2 38961  50.0829 288.0202 1680084 203.3758 148.1120 12.19451671277426
BREEZE-M DEB            
1 38971U 12044DE  19167.01045366  .00023637  46023-5  40600-3 0  9992
2 38971  50.0851 149.3379 1537869 318.4800  30.8639 12.50514946279675
