ISS (ZARYA)             
1 25544U 98067A   19170.22658565  .00000477  00000-0  15839-4 0  9995
2 25544  51.6444 351.1760 0008191  64.5531 273.1099 15.51208616175562
TIANGONG-2              
1 41765U 16057A   19170.21887731  .00002661  00000-0  34295-4 0  9999
2 41765  42.7840 314.6659 0009085 281.1091  82.6505 15.61754366157360
BANXING-2               
1 41834U 16057H   19170.16743138  .00159733  20873-4  14554-3 0  9994
2 41834  42.7690 174.7642 0012244 109.2910 296.1887 16.11621940152972
ALTAIR PATHFINDER       
1 42711U 98067LS  19169.91157459  .00028320  00000-0  14715-3 0  9998
2 42711  51.6347 288.6374 0000936 144.0239 216.0826 15.80745416119122
NJUST-1                 
1 42722U 98067MB  19170.15421067  .00160668  22292-4  28235-3 0  9992
2 42722  51.6339 265.7826 0005100 321.4020 110.6881 16.01663899118510
NSIGHT                  
1 42726U 98067MF  19169.64709227  .00013510  00000-0  10848-3 0  9998
2 42726  51.6366 308.9383 0004488 177.0661 183.0364 15.71336484117811
KESTREL EYE IIM (KE2M)  
1 42982U 98067NE  19169.72967623  .00004995  00000-0  60301-4 0  9994
2 42982  51.6381 332.0530 0004451 140.0494 220.0828 15.62751773 93922
ASTERIA                 
1 43020U 98067NH  19169.66953483  .00014962  00000-0  12344-3 0  9998
2 43020  51.6433 319.7946 0001995 122.5617 237.5574 15.70582206 89859
DELLINGR (RBLE)         
1 43021U 98067NJ  19170.03075521  .00005704  00000-0  67107-4 0  9992
2 43021  51.6391 330.3538 0002628 108.7622 251.3658 15.63109173 89740
1KUNS-PF                
1 43466U 98067NP  19169.72261647  .00012607  00000-0  12529-3 0  9992
2 43466  51.6376 334.2699 0001005 138.5184 221.5888 15.66157850 62922
UBAKUSAT                
1 43467U 98067NQ  19169.98783121  .00008627  00000-0  99685-4 0  9993
2 43467  51.6378 336.7906 0002572  83.1712 276.9575 15.62793700 62928
BATSU-CS1 (IRAZU)       
1 43468U 98067NR  19169.71179437  .00017379  00000-0  15229-3 0  9999
2 43468  51.6366 331.1745 0000899 165.8680 194.2342 15.68974474162951
CUBERRT                 
1 43546U 98067NU  19169.76855611  .00018144  00000-0  18895-3 0  9999
2 43546  51.6386 339.0738 0005139 134.0630 226.0789 15.64618423 53003
TEMPEST-D               
1 43547U 98067NV  19169.72770052  .00002456  00000-0  38816-4 0  9996
2 43547  51.6393 346.3010 0006198 121.9325 238.2270 15.57956932 52582
RAINCUBE                
1 43548U 98067NW  19170.11094449  .00008586  00000-0  10458-3 0  9992
2 43548  51.6376 340.5973 0005892 136.6064 223.5394 15.61409948 53143
HALOSAT                 
1 43549U 98067NX  19169.73084683  .00009038  00000-0  11001-3 0  9996
2 43549  51.6382 342.5693 0005891 136.6730 223.4728 15.61349834 52642
RADIX                   
1 43550U 98067NY  19170.08383511  .00018002  00000-0  17720-3 0  9995
2 43550  51.6360 335.8829 0004484 158.3610 201.7576 15.66052469 53226
ENDUROSAT ONE           
1 43551U 98067NZ  19169.75220044  .00009657  00000-0  11055-3 0  9990
2 43551  51.6381 340.4660 0006113 146.1265 214.0121 15.62861414 53088
EQUISAT                 
1 43552U 98067PA  19169.73239023  .00007875  00000-0  95553-4 0  9992
2 43552  51.6392 341.8521 0006510 144.1582 215.9849 15.61651700 53028
1998-067PB              
1 43553U 98067PB  19169.77731770  .00006199  00000-0  79977-4 0  9993
2 43553  51.6408 342.9266 0006727 142.3954 217.7511 15.60475168 53069
1998-067PC              
1 43554U 98067PC  19169.72357459  .00009550  00000-0  10816-3 0  9997
2 43554  51.6381 340.2744 0006257 146.0664 214.0732 15.63154899 52623
AEROCUBE 12A            
1 43556U 18046C   19169.91340766  .00000295  00000-0  23115-4 0  9996
2 43556  51.6432  55.5903 0009147  72.2114 287.9863 15.28701589 51590
AEROCUBE 12B            
1 43557U 18046D   19170.18843311 -.00000138  00000-0  78406-5 0  9993
2 43557  51.6438  54.4228 0009149  72.8351 287.3630 15.28578415 51581
LEMUR-2-VU              
1 43558U 18046E   19170.09536915  .00001977  00000-0  80892-4 0  9995
2 43558  51.6431  53.8313 0008512  74.8017 285.3904 15.29340069 51627
LEMUR-2-ALEXANDER       
1 43559U 18046F   19169.89161932  .00002608  00000-0  10245-3 0  9991
2 43559  51.6422  54.7240 0008444  74.1866 286.0044 15.29431991 51376
LEMUR-2-YUASA           
1 43560U 18046G   19169.90277567  .00001708  00000-0  71666-4 0  9992
2 43560  51.6431  54.7886 0008965  86.4628 273.7377 15.29310922 51590
LEMUR-2-TOMHENDERSON    
1 43561U 18046H   19170.09567823  .00001501  00000-0  64527-4 0  9991
2 43561  51.6431  53.8285 0008801  86.9722 273.2265 15.29290251 51181
SIRIUSSAT-1             
1 43595U 98067PG  19169.70751687  .00007957  00000-0  98789-4 0  9996
2 43595  51.6371 343.8902 0003912 113.4789 246.6616 15.61032917 47847
SIRIUSSAT-2             
1 43596U 98067PH  19170.05802839  .00008921  00000-0  11064-3 0  9995
2 43596  51.6380 342.5145 0004448 114.9799 245.1657 15.60878748 47898
TANUSHA-3               
1 43597U 98067PJ  19169.73549931  .00010015  00000-0  11660-3 0  9999
2 43597  51.6363 342.5519 0003992 128.9904 231.1446 15.62377793 47865
1998-067PK              
1 43598U 98067PK  19169.73337849  .00010560  00000-0  12190-3 0  9997
2 43598  51.6372 342.5569 0004170 126.7055 233.4323 15.62529548 47869
1998-067PN              
1 43638U 98067PN  19170.11835151  .00004977  00000-0  71874-4 0  9995
2 43638  51.6389 345.9108 0003279 101.4821 258.6540 15.57929870 39775
1998-067PP              
1 43639U 98067PP  19170.07639490  .00007277  00000-0  97166-4 0  9997
2 43639  51.6395 344.8850 0005756 104.5105 255.6527 15.59239661 39794
STARS-ME                
1 43640U 98067PQ  19169.74649579  .00005539  00000-0  77600-4 0  9990
2 43640  51.6378 347.1748 0005895  99.6447 260.5211 15.58499678 39730
SOYUZ-MS 11             
1 43756U 18098A   19167.33199074  .00001631  00000-0  35186-4 0  9999
2 43756  51.6443   5.5421 0008190  54.9565 307.6189 15.51206402 30282
ISS DEB (SEDA-AP)       
1 43870U 98067PU  19169.74317279  .00001854  00000-0  33832-4 0  9999
2 43870  51.6429 350.9020 0005513 121.7759 238.3706 15.55355128 27857
CATSAT-2                
1 44029U 98067PV  19169.93218715  .00006597  00000-0  98411-4 0  9995
2 44029  51.6400 349.9259 0005474 144.5120 215.6236 15.56402341 21611
DELPHINI                
1 44030U 98067PW  19169.79827562  .00006587  00000-0  97824-4 0  9993
2 44030  51.6390 350.5221 0005153 143.8559 216.2782 15.56532314 21561
UNITE                   
1 44031U 98067PX  19169.77020468  .00004264  00000-0  67844-4 0  9991
2 44031  51.6397 351.0868 0003801 137.5996 222.5290 15.55657272 21558
TECHEDSAT 8             
1 44032U 98067PY  19169.79444418  .00014828  00000-0  18866-3 0  9995
2 44032  51.6389 348.9988 0004137 145.5471 214.5791 15.59592290 21568
CATSAT-1                
1 44033U 98067PZ  19169.67527948  .00006080  00000-0  91233-4 0  9994
2 44033  51.6401 351.2105 0005280 143.1255 217.0100 15.56407844 21486
SOYUZ-MS 12             
1 44069U 19013A   19167.33199074  .00001631  00000-0  35186-4 0  9995
2 44069  51.6443   5.5421 0008190  54.9565 307.6189 15.51206402 14529
PROGRESS-MS 11          
1 44110U 19019A   19167.33199074  .00001631  00000-0  35186-4 0  9998
2 44110  51.6443   5.5421 0008190  54.9565 307.6189 15.51206402 11321
CYGNUS NG-11            
1 44188U 19022A   19167.33199074  .00001631  00000-0  35186-4 0  9997
2 44188  51.6443   5.5421 0008190  54.9565 307.6189 15.51206402  9233
ISS DEB                 
1 44303U 98067QA  19169.77546662  .00002244  00000-0  44909-4 0  9995
2 44303  51.6430 353.3739 0006572  59.9479 300.2161 15.51566070  3092
ISS DEB                 
1 44304U 98067QB  19169.70750024  .00006430  00000-0  11263-3 0  9995
2 44304  51.6422 353.6739 0006779  42.2271 317.9240 15.51945182  3099
ISS DEB                 
1 44305U 98067QC  19157.34141877  .00009942  00000-0  16865-3 0  9997
2 44305  51.6398  55.0800 0006054  49.1840 310.9674 15.52153184  1173
ISS DEB                 
1 44306U 98067QD  19169.77732927  .00002352  00000-0  46915-4 0  9998
2 44306  51.6420 353.3850 0008004  55.2147 304.9595 15.51426059  3107
1998-067QE              
1 44329U 98067QE  19169.73137037  .00005662  00000-0  10000-3 0  9992
2 44329  51.6477 353.6165 0008358  92.2888   1.6710 15.51969516   265
1998-067QF              
1 44330U 98067QF  19169.79719075  .00005655  00000-0  10000-3 0  9990
2 44330  51.6427 353.3195 0008417  75.8732  25.8523 15.51934490   255
1998-067QG              
1 44331U 98067QG  19169.79700515  .00005670  00000-0  10000-3 0  9997
2 44331  51.6430 353.2928 0008044  98.4695   2.6298 15.52007902   261
1998-067QH              
1 44332U 98067QH  19169.81365741  .00005677  00000-0  10000-3 0  9996
2 44332  51.6368 353.2217 0007311  86.7962 107.5512 15.52042750   237
